(module C_0402 (layer F.Cu) (tedit 5DAEF957)
  (descr "Capacitor SMD 0402 (1005 Metric), square (rectangular) end terminal, IPC_7351 nominal, (Body size source: http://www.tortai-tech.com/upload/download/2011102023233369053.pdf), generated with kicad-footprint-generator")
  (tags capacitor)
  (attr smd)
  (fp_text reference REF** (at 0 -1.17) (layer F.SilkS)
    (effects (font (size 1 1) (thickness 0.2)))
  )
  (fp_text value C_0402_1005Metric (at 0 1.17) (layer F.Fab) hide
    (effects (font (size 1 1) (thickness 0.1)))
  )
  (fp_line (start -0.5 0.25) (end -0.5 -0.25) (layer F.Fab) (width 0.1))
  (fp_line (start -0.5 -0.25) (end 0.5 -0.25) (layer F.Fab) (width 0.1))
  (fp_line (start 0.5 -0.25) (end 0.5 0.25) (layer F.Fab) (width 0.1))
  (fp_line (start 0.5 0.25) (end -0.5 0.25) (layer F.Fab) (width 0.1))
  (fp_line (start -0.93 0.47) (end -0.93 -0.47) (layer F.CrtYd) (width 0.05))
  (fp_line (start -0.93 -0.47) (end 0.93 -0.47) (layer F.CrtYd) (width 0.05))
  (fp_line (start 0.93 -0.47) (end 0.93 0.47) (layer F.CrtYd) (width 0.05))
  (fp_line (start 0.93 0.47) (end -0.93 0.47) (layer F.CrtYd) (width 0.05))
  (fp_text user %R (at 0 0) (layer F.Fab)
    (effects (font (size 0.25 0.25) (thickness 0.04)))
  )
  (fp_line (start 0.25 -0.425) (end 0.9 -0.425) (layer F.SilkS) (width 0.12))
  (fp_line (start 0.9 -0.425) (end 0.9 0.425) (layer F.SilkS) (width 0.12))
  (fp_line (start 0.9 0.425) (end 0.25 0.425) (layer F.SilkS) (width 0.12))
  (fp_line (start -0.25 -0.425) (end -0.9 -0.425) (layer F.SilkS) (width 0.12))
  (fp_line (start -0.9 -0.425) (end -0.9 0.425) (layer F.SilkS) (width 0.12))
  (fp_line (start -0.9 0.425) (end -0.25 0.425) (layer F.SilkS) (width 0.12))
  (pad 1 smd roundrect (at -0.485 0) (size 0.59 0.64) (layers F.Cu F.Paste F.Mask) (roundrect_rratio 0.15))
  (pad 2 smd roundrect (at 0.485 0) (size 0.59 0.64) (layers F.Cu F.Paste F.Mask) (roundrect_rratio 0.15))
  (model "${KICAD_BASE}/step/Capacitor_SMD.3dshapes/0402 SMD Capacitor.step"
    (at (xyz 0 0 0))
    (scale (xyz 1 1 1))
    (rotate (xyz 0 0 0))
  )
)
