(module SC70-6 (layer F.Cu) (tedit 5D084E51)
  (tags "SOT-363 SC70-6")
  (attr smd)
  (fp_text reference REF** (at 0.05 -2.6) (layer F.SilkS)
    (effects (font (size 1 1) (thickness 0.2)))
  )
  (fp_text value SC70-6 (at 0 2.4 180) (layer F.Fab) hide
    (effects (font (size 1 1) (thickness 0.1)))
  )
  (fp_line (start -2.4 1.4) (end 2.4 1.4) (layer F.CrtYd) (width 0.05))
  (fp_line (start 2.4 1.4) (end 2.4 -1.4) (layer F.CrtYd) (width 0.05))
  (fp_line (start -2.4 -1.4) (end -2.4 1.4) (layer F.CrtYd) (width 0.05))
  (fp_line (start -2.4 -1.4) (end 2.4 -1.4) (layer F.CrtYd) (width 0.05))
  (fp_line (start 0.675 -1.1) (end -0.175 -1.1) (layer F.Fab) (width 0.05))
  (fp_line (start -0.675 -0.6) (end -0.675 1.1) (layer F.Fab) (width 0.05))
  (fp_line (start 0.675 -1.1) (end 0.675 1.1) (layer F.Fab) (width 0.05))
  (fp_line (start 0.675 1.1) (end -0.675 1.1) (layer F.Fab) (width 0.05))
  (fp_line (start -0.175 -1.1) (end -0.675 -0.6) (layer F.Fab) (width 0.05))
  (fp_line (start 0.7112 -1.1176) (end -1.7272 -1.1176) (layer F.SilkS) (width 0.2))
  (fp_line (start 0.7112 1.1176) (end -0.7112 1.1176) (layer F.SilkS) (width 0.2))
  (pad 1 smd roundrect (at -1.2 -0.65) (size 1.2 0.4) (layers F.Cu F.Paste F.Mask) (roundrect_rratio 0.25))
  (pad 2 smd roundrect (at -1.2 0) (size 1.2 0.4) (layers F.Cu F.Paste F.Mask) (roundrect_rratio 0.25))
  (pad 3 smd roundrect (at -1.2 0.65) (size 1.2 0.4) (layers F.Cu F.Paste F.Mask) (roundrect_rratio 0.25))
  (pad 4 smd roundrect (at 1.2 0.65) (size 1.2 0.4) (layers F.Cu F.Paste F.Mask) (roundrect_rratio 0.25))
  (pad 5 smd roundrect (at 1.2 0) (size 1.2 0.4) (layers F.Cu F.Paste F.Mask) (roundrect_rratio 0.25))
  (pad 6 smd roundrect (at 1.2 -0.65) (size 1.2 0.4) (layers F.Cu F.Paste F.Mask) (roundrect_rratio 0.25))
  (model ${KICAD_BASE}/step/Package_SOT.3dshapes/SC70-6.step
    (offset (xyz 0 0 0.5))
    (scale (xyz 1 1 1))
    (rotate (xyz -90 0 90))
  )
)
