(module L_0603_1608Metric (layer F.Cu) (tedit 5CB545E5)
  (descr "Inductor SMD 0603 (1608 Metric), square (rectangular) end terminal, IPC_7351 nominal, (Body size source: http://www.tortai-tech.com/upload/download/2011102023233369053.pdf), generated with kicad-footprint-generator")
  (tags inductor)
  (attr smd)
  (fp_text reference REF** (at 0 -1.43) (layer F.SilkS)
    (effects (font (size 1 1) (thickness 0.2)))
  )
  (fp_text value L_0603_1608Metric (at 0 1.43) (layer F.Fab)
    (effects (font (size 1 1) (thickness 0.15)))
  )
  (fp_line (start -0.8 0.4) (end -0.8 -0.4) (layer F.Fab) (width 0.1))
  (fp_line (start -0.8 -0.4) (end 0.8 -0.4) (layer F.Fab) (width 0.1))
  (fp_line (start 0.8 -0.4) (end 0.8 0.4) (layer F.Fab) (width 0.1))
  (fp_line (start 0.8 0.4) (end -0.8 0.4) (layer F.Fab) (width 0.1))
  (fp_line (start -1.48 0.73) (end -1.48 -0.73) (layer F.CrtYd) (width 0.05))
  (fp_line (start -1.48 -0.73) (end 1.48 -0.73) (layer F.CrtYd) (width 0.05))
  (fp_line (start 1.48 -0.73) (end 1.48 0.73) (layer F.CrtYd) (width 0.05))
  (fp_line (start 1.48 0.73) (end -1.48 0.73) (layer F.CrtYd) (width 0.05))
  (fp_text user %R (at 0 0) (layer F.Fab)
    (effects (font (size 0.4 0.4) (thickness 0.06)))
  )
  (fp_line (start -0.254 -0.508) (end 0.254 -0.508) (layer F.SilkS) (width 0.2))
  (fp_line (start -0.254 0.508) (end 0.254 0.508) (layer F.SilkS) (width 0.2))
  (pad 1 smd roundrect (at -0.7875 0) (size 0.9 1) (layers F.Cu F.Paste F.Mask) (roundrect_rratio 0.25))
  (pad 2 smd roundrect (at 0.7875 0) (size 0.9 1) (layers F.Cu F.Paste F.Mask) (roundrect_rratio 0.25))
  (model ${KICAD_BASE}/step/Inductor_SMD.3dshapes/Coilcraft-0603ME.step
    (at (xyz 0 0 0))
    (scale (xyz 1 1 1))
    (rotate (xyz -90 0 90))
  )
)
