(module TestPoint_Keystone_5003 (layer F.Cu) (tedit 5DD4EB2E)
  (descr "Orange color test point Keystone")
  (fp_text reference REF** (at 0 -2.54) (layer F.SilkS)
    (effects (font (size 1 1) (thickness 0.2)))
  )
  (fp_text value REF** (at 0 2.54) (layer F.Fab)
    (effects (font (size 1 1) (thickness 0.1)))
  )
  (fp_circle (center 0 0) (end 1.016 -1.016) (layer F.SilkS) (width 0.2))
  (fp_text user Orange (at 4.572 0) (layer Cmts.User) hide
    (effects (font (size 1 1) (thickness 0.15)))
  )
  (pad 1 thru_hole circle (at 0 0) (size 2.54 2.54) (drill 1) (layers *.Cu *.Mask))
  (model "${KICAD_BASE}/step/TestPoints.3dshapes/Test Point Keystone - 5003 ORANGE.STEP"
    (at (xyz 0 0 0))
    (scale (xyz 1 1 1))
    (rotate (xyz 0 0 0))
  )
)
